<?xml version="1.0" encoding="UTF-8"?>
<svg xmlns="http://www.w3.org/2000/svg" xmlns:xlink="http://www.w3.org/1999/xlink" width="24" height="24" viewBox="0 0 24 24" version="1.1">
<g id="surface1">
<path style=" stroke:none;fill-rule:nonzero;fill:rgb(100%,100%,100%);fill-opacity:1;" d="M 6.648438 0.601562 C 6.449219 0.949219 6 2.148438 5.75 3.25 C 5.25 5 5 5.25 3.050781 5.75 C -0.101562 6.5 -0.5 7.449219 1.148438 9.949219 L 2.5 12 L 1.148438 14.050781 C -0.5 16.550781 -0.101562 17.5 3.050781 18.25 C 5.050781 18.75 5.25 18.949219 5.75 20.949219 C 6.5 24.101562 7.449219 24.5 9.949219 22.851562 L 12 21.5 L 14.050781 22.851562 C 16.550781 24.5 17.5 24.101562 18.25 20.949219 C 18.75 18.949219 18.949219 18.75 20.949219 18.25 C 24.101562 17.5 24.5 16.550781 22.851562 14.050781 L 21.5 12 L 22.851562 9.949219 C 24.5 7.449219 24.101562 6.5 20.949219 5.75 C 18.949219 5.25 18.75 5.050781 18.25 3.050781 C 17.5 -0.101562 16.550781 -0.5 14.050781 1.148438 L 12 2.5 L 10.148438 1.25 C 8.050781 -0.148438 7.25 -0.300781 6.648438 0.601562 Z M 10 4 C 11.601562 5.25 12.25 5.25 14.101562 3.949219 C 14.898438 3.351562 15.648438 3 15.75 3.101562 C 15.898438 3.199219 16.148438 4.199219 16.398438 5.25 C 16.75 7 17 7.25 18.75 7.601562 C 19.800781 7.851562 20.800781 8.101562 20.898438 8.25 C 21 8.351562 20.648438 9.101562 20.050781 9.898438 C 18.75 11.75 18.75 12.25 20 13.851562 C 21.398438 15.648438 21.300781 15.898438 18.898438 16.351562 C 16.949219 16.75 16.75 16.949219 16.398438 18.75 C 16.148438 19.800781 15.898438 20.800781 15.75 20.898438 C 15.648438 21 14.898438 20.648438 14.101562 20.050781 C 12.25 18.75 11.75 18.75 9.898438 20.050781 C 9.101562 20.648438 8.351562 21 8.25 20.898438 C 8.101562 20.800781 7.851562 19.800781 7.601562 18.75 C 7.25 16.949219 7.050781 16.75 5.101562 16.351562 C 2.699219 15.898438 2.601562 15.648438 4 13.851562 C 5.25 12.25 5.25 11.75 3.949219 9.898438 C 3.351562 9.101562 3 8.351562 3.101562 8.25 C 3.199219 8.101562 4.199219 7.851562 5.25 7.601562 C 7.050781 7.25 7.25 7.050781 7.648438 5.101562 C 8.101562 2.699219 8.25 2.648438 10 4 Z M 10 4 "/>
<path style=" stroke:none;fill-rule:nonzero;fill:rgb(100%,100%,100%);fill-opacity:1;" d="M 10.5 6.851562 C 10.101562 7 9.148438 7.699219 8.398438 8.398438 C 6.398438 10.25 6.398438 13.5 8.449219 15.550781 C 11.648438 18.75 17 16.550781 17 12.050781 C 17 8.699219 13.351562 5.75 10.5 6.851562 Z M 14 10 C 14.550781 10.550781 15 11.449219 15 12 C 15 13.300781 13.300781 15 12 15 C 10.699219 15 9 13.300781 9 12 C 9 11.449219 9.449219 10.550781 10 10 C 10.550781 9.449219 11.449219 9 12 9 C 12.550781 9 13.449219 9.449219 14 10 Z M 14 10 "/>
</g>
</svg>
