<?xml version="1.0" encoding="UTF-8"?>
<svg xmlns="http://www.w3.org/2000/svg" xmlns:xlink="http://www.w3.org/1999/xlink" width="24" height="24" viewBox="0 0 24 24" version="1.1">
<g id="surface1">
<path style=" stroke:none;fill-rule:nonzero;fill:rgb(100%,100%,100%);fill-opacity:1;" d="M 6.648438 0.601562 C 6.449219 0.949219 6 2.148438 5.75 3.25 C 5.25 5 5 5.25 3.050781 5.75 C -0.101562 6.5 -0.5 7.449219 1.148438 9.949219 L 2.5 12 L 1.148438 14.050781 C -0.5 16.550781 -0.101562 17.5 3.050781 18.25 C 5.050781 18.75 5.25 18.949219 5.75 20.949219 C 6.5 24.101562 7.449219 24.5 9.949219 22.851562 L 12 21.5 L 14.050781 22.851562 C 16.550781 24.5 17.5 24.101562 18.25 20.949219 C 18.75 18.949219 18.949219 18.75 20.949219 18.25 C 24.101562 17.5 24.5 16.550781 22.851562 14.050781 L 21.5 12 L 22.851562 9.949219 C 24.5 7.449219 24.101562 6.5 20.949219 5.75 C 18.949219 5.25 18.75 5.050781 18.25 3.050781 C 17.5 -0.101562 16.550781 -0.5 14.050781 1.148438 L 12 2.5 L 10.148438 1.25 C 8.050781 -0.148438 7.25 -0.300781 6.648438 0.601562 Z M 14 10 C 14.550781 10.550781 15 11.449219 15 12 C 15 13.300781 13.300781 15 12 15 C 10.699219 15 9 13.300781 9 12 C 9 11.449219 9.449219 10.550781 10 10 C 10.550781 9.449219 11.449219 9 12 9 C 12.550781 9 13.449219 9.449219 14 10 Z M 14 10 "/>
</g>
</svg>
